EESchema Schematic File Version 4
EELAYER 30 0
EELAYER END
$Descr A4 11693 8268
encoding utf-8
Sheet 1 1
Title "Airsoft timer"
Date ""
Rev ""
Comp ""
Comment1 ""
Comment2 ""
Comment3 ""
Comment4 ""
$EndDescr
$Comp
L Regulator_Switching:MC34063AD U1
U 1 1 5E3E409F
P 2300 1500
F 0 "U1" H 2300 1967 50  0000 C CNN
F 1 "MC34063AD" H 2300 1876 50  0000 C CNN
F 2 "Package_SO:SOIC-8_3.9x4.9mm_P1.27mm" H 2350 1050 50  0001 L CNN
F 3 "http://www.onsemi.com/pub_link/Collateral/MC34063A-D.PDF" H 2800 1400 50  0001 C CNN
	1    2300 1500
	1    0    0    -1  
$EndComp
$Comp
L Device:Battery BT1
U 1 1 5E3E50C9
P 750 1500
F 0 "BT1" H 858 1546 50  0000 L CNN
F 1 "9V" H 858 1455 50  0000 L CNN
F 2 "custom_footprints:PinHeader_1x02_P2.54mm_Vertical" V 750 1560 50  0001 C CNN
F 3 "~" V 750 1560 50  0001 C CNN
	1    750  1500
	1    0    0    -1  
$EndComp
$Comp
L power:GND #PWR01
U 1 1 5E3E5C10
P 750 1800
F 0 "#PWR01" H 750 1550 50  0001 C CNN
F 1 "GND" H 755 1627 50  0000 C CNN
F 2 "" H 750 1800 50  0001 C CNN
F 3 "" H 750 1800 50  0001 C CNN
	1    750  1800
	1    0    0    -1  
$EndComp
Wire Wire Line
	750  1700 750  1750
$Comp
L power:GND #PWR03
U 1 1 5E3E8277
P 2300 2000
F 0 "#PWR03" H 2300 1750 50  0001 C CNN
F 1 "GND" H 2305 1827 50  0000 C CNN
F 2 "" H 2300 2000 50  0001 C CNN
F 3 "" H 2300 2000 50  0001 C CNN
	1    2300 2000
	1    0    0    -1  
$EndComp
Wire Wire Line
	2700 1300 2700 1400
Wire Wire Line
	2700 1500 2700 1400
Connection ~ 2700 1400
$Comp
L Device:C C2
U 1 1 5E3E9C9A
P 1700 1900
F 0 "C2" H 1815 1946 50  0000 L CNN
F 1 "560pF" H 1815 1855 50  0000 L CNN
F 2 "Capacitor_SMD:C_0603_1608Metric" H 1738 1750 50  0001 C CNN
F 3 "~" H 1700 1900 50  0001 C CNN
	1    1700 1900
	1    0    0    -1  
$EndComp
Wire Wire Line
	1700 1700 1900 1700
Wire Wire Line
	1700 1750 1700 1700
$Comp
L power:GND #PWR02
U 1 1 5E3F595E
P 1700 2100
F 0 "#PWR02" H 1700 1850 50  0001 C CNN
F 1 "GND" H 1705 1927 50  0000 C CNN
F 2 "" H 1700 2100 50  0001 C CNN
F 3 "" H 1700 2100 50  0001 C CNN
	1    1700 2100
	1    0    0    -1  
$EndComp
Wire Wire Line
	1700 2100 1700 2050
$Comp
L Device:R R3
U 1 1 5E3FD6B0
P 2300 900
F 0 "R3" V 2093 900 50  0000 C CNN
F 1 "1.2R" V 2184 900 50  0000 C CNN
F 2 "Resistor_SMD:R_0805_2012Metric" V 2230 900 50  0001 C CNN
F 3 "~" H 2300 900 50  0001 C CNN
	1    2300 900 
	0    1    1    0   
$EndComp
Wire Wire Line
	2150 900  1500 900 
Wire Wire Line
	1500 900  1500 1300
Connection ~ 1500 1300
Wire Wire Line
	1500 1300 1900 1300
Wire Wire Line
	2450 900  2700 900 
Wire Wire Line
	2700 900  2700 1300
Connection ~ 2700 1300
$Comp
L Device:CP C1
U 1 1 5E401017
P 1500 1550
F 0 "C1" H 1618 1596 50  0000 L CNN
F 1 "220uF" H 1618 1505 50  0000 L CNN
F 2 "Capacitor_THT:CP_Radial_D6.3mm_P2.50mm" H 1538 1400 50  0001 C CNN
F 3 "~" H 1500 1550 50  0001 C CNN
	1    1500 1550
	1    0    0    -1  
$EndComp
Wire Wire Line
	1500 1400 1500 1300
Wire Wire Line
	1500 1700 1500 1750
Connection ~ 750  1750
Wire Wire Line
	750  1750 750  1800
$Comp
L power:GND #PWR04
U 1 1 5E402F18
P 3000 2100
F 0 "#PWR04" H 3000 1850 50  0001 C CNN
F 1 "GND" H 3005 1927 50  0000 C CNN
F 2 "" H 3000 2100 50  0001 C CNN
F 3 "" H 3000 2100 50  0001 C CNN
	1    3000 2100
	1    0    0    -1  
$EndComp
Wire Wire Line
	3100 1700 3000 1700
Wire Wire Line
	3000 1750 3000 1700
Connection ~ 3000 1700
Wire Wire Line
	3000 1700 2700 1700
Wire Wire Line
	3000 2100 3000 2050
$Comp
L Device:L_Core_Ferrite L1
U 1 1 5E403BFE
P 3250 1700
F 0 "L1" V 3475 1700 50  0000 C CNN
F 1 "100uH" V 3384 1700 50  0000 C CNN
F 2 "custom_footprints:L_Radial_D5.0mm_P2.00mm" H 3250 1700 50  0001 C CNN
F 3 "~" H 3250 1700 50  0001 C CNN
	1    3250 1700
	0    -1   -1   0   
$EndComp
Wire Wire Line
	3500 1750 3500 1700
Wire Wire Line
	3500 1700 3400 1700
$Comp
L power:GND #PWR05
U 1 1 5E436DE2
P 3500 2100
F 0 "#PWR05" H 3500 1850 50  0001 C CNN
F 1 "GND" H 3505 1927 50  0000 C CNN
F 2 "" H 3500 2100 50  0001 C CNN
F 3 "" H 3500 2100 50  0001 C CNN
	1    3500 2100
	1    0    0    -1  
$EndComp
Wire Wire Line
	3500 2050 3500 2100
$Comp
L Device:CP C3
U 1 1 5E42206A
P 3500 1900
F 0 "C3" H 3618 1946 50  0000 L CNN
F 1 "220uF" H 3618 1855 50  0000 L CNN
F 2 "Capacitor_THT:CP_Radial_D6.3mm_P2.50mm" H 3538 1750 50  0001 C CNN
F 3 "~" H 3500 1900 50  0001 C CNN
	1    3500 1900
	1    0    0    -1  
$EndComp
Wire Wire Line
	2700 1800 2850 1800
Wire Wire Line
	2850 1800 2850 2400
$Comp
L Diode:BAT54W D1
U 1 1 5EDE9F29
P 3000 1900
F 0 "D1" V 2954 2028 50  0000 L CNN
F 1 "BAT54" V 3045 2028 50  0000 L CNN
F 2 "Package_TO_SOT_SMD:SOT-23" H 3000 1725 50  0001 C CNN
F 3 "https://assets.nexperia.com/documents/data-sheet/BAT54W_SER.pdf" H 3000 1900 50  0001 C CNN
	1    3000 1900
	0    1    1    0   
$EndComp
$Comp
L Diode:BAT54W D2
U 1 1 5EE7FF5E
P 2250 4300
F 0 "D2" V 2204 4428 50  0000 L CNN
F 1 "BAT54" V 2295 4428 50  0000 L CNN
F 2 "Package_TO_SOT_SMD:SOT-23" H 2250 4125 50  0001 C CNN
F 3 "https://assets.nexperia.com/documents/data-sheet/BAT54W_SER.pdf" H 2250 4300 50  0001 C CNN
	1    2250 4300
	0    1    1    0   
$EndComp
$Comp
L power:VDD #PWR010
U 1 1 5EE29D78
P 2100 4000
F 0 "#PWR010" H 2100 3850 50  0001 C CNN
F 1 "VDD" H 2117 4173 50  0000 C CNN
F 2 "" H 2100 4000 50  0001 C CNN
F 3 "" H 2100 4000 50  0001 C CNN
	1    2100 4000
	1    0    0    -1  
$EndComp
$Comp
L Transistor_BJT:MMBT3904 Q2
U 1 1 5EE12EE0
P 2200 4750
F 0 "Q2" H 2390 4796 50  0000 L CNN
F 1 "KST3904" H 2390 4705 50  0000 L CNN
F 2 "Package_TO_SOT_SMD:SOT-23" H 2400 4675 50  0001 L CIN
F 3 "https://www.fairchildsemi.com/datasheets/2N/2N3904.pdf" H 2200 4750 50  0001 L CNN
	1    2200 4750
	-1   0    0    -1  
$EndComp
$Comp
L Device:Buzzer BZ1
U 1 1 5EDFCDB4
P 2000 4300
F 0 "BZ1" H 2005 4590 50  0000 C CNN
F 1 "KSTG931AP" H 2150 4500 50  0000 C CNN
F 2 "custom_footprints:PinHeader_1x02_P2.54mm_Vertical" V 1975 4400 50  0001 C CNN
F 3 "~" V 1975 4400 50  0001 C CNN
	1    2000 4300
	-1   0    0    -1  
$EndComp
Text GLabel 6550 5150 0    50   Input ~ 0
MCLR
NoConn ~ 4950 5550
Text GLabel 4950 6050 2    50   Input ~ 0
LCD_SCK
Text GLabel 4950 5950 2    50   Input ~ 0
LCD_MOSI
Text GLabel 4950 5850 2    50   Input ~ 0
LCD_DC
Text GLabel 4950 5750 2    50   Input ~ 0
LCD_RS
$Comp
L power:GND #PWR0118
U 1 1 5E647F15
P 2100 5100
F 0 "#PWR0118" H 2100 4850 50  0001 C CNN
F 1 "GND" H 2105 4927 50  0000 C CNN
F 2 "" H 2100 5100 50  0001 C CNN
F 3 "" H 2100 5100 50  0001 C CNN
	1    2100 5100
	1    0    0    -1  
$EndComp
Wire Wire Line
	5200 4600 6600 4600
Wire Wire Line
	5200 5050 5200 4600
Wire Wire Line
	4950 5050 5200 5050
Wire Wire Line
	5300 5150 4950 5150
Wire Wire Line
	5300 4700 5300 5150
$Comp
L Connector_Generic:Conn_01x05 J2
U 1 1 5E3F77B3
P 6800 4800
F 0 "J2" H 6718 4375 50  0000 C CNN
F 1 "Conn_01x05" H 6718 4466 50  0000 C CNN
F 2 "custom_footprints:PinHeader_1x05_P2.54mm_Vertical" H 6800 4800 50  0001 C CNN
F 3 "~" H 6800 4800 50  0001 C CNN
	1    6800 4800
	1    0    0    1   
$EndComp
NoConn ~ 3350 5450
NoConn ~ 4950 4950
NoConn ~ 4950 4850
NoConn ~ 4950 4750
NoConn ~ 4950 4650
NoConn ~ 4950 4550
NoConn ~ 4950 4450
NoConn ~ 3350 5350
NoConn ~ 3350 4950
NoConn ~ 3350 4850
Wire Wire Line
	4500 3900 4650 3900
Wire Wire Line
	4050 3900 4050 4250
Wire Wire Line
	4200 3900 4050 3900
$Comp
L power:GND #PWR0108
U 1 1 5E4DD624
P 4650 3900
F 0 "#PWR0108" H 4650 3650 50  0001 C CNN
F 1 "GND" H 4655 3727 50  0000 C CNN
F 2 "" H 4650 3900 50  0001 C CNN
F 3 "" H 4650 3900 50  0001 C CNN
	1    4650 3900
	1    0    0    -1  
$EndComp
Text GLabel 3200 5250 3    50   Input ~ 0
MCLR
Connection ~ 5350 5550
Wire Wire Line
	5150 5450 4950 5450
Wire Wire Line
	5150 5550 5150 5450
Wire Wire Line
	5350 5550 5150 5550
Connection ~ 5350 5250
Wire Wire Line
	5150 5250 5350 5250
Wire Wire Line
	5150 5350 5150 5250
Wire Wire Line
	4950 5350 5150 5350
$Comp
L power:GND #PWR0107
U 1 1 5E449D18
P 6100 5400
F 0 "#PWR0107" H 6100 5150 50  0001 C CNN
F 1 "GND" H 6105 5227 50  0000 C CNN
F 2 "" H 6100 5400 50  0001 C CNN
F 3 "" H 6100 5400 50  0001 C CNN
	1    6100 5400
	1    0    0    -1  
$EndComp
Wire Wire Line
	5550 5250 5350 5250
Wire Wire Line
	5550 5550 5350 5550
$Comp
L Device:Crystal Y1
U 1 1 5E42FC27
P 5350 5400
F 0 "Y1" V 5250 5550 50  0000 L CNN
F 1 "32.768kHz" V 5350 5550 50  0000 L CNN
F 2 "Crystal:Crystal_C26-LF_D2.1mm_L6.5mm_Horizontal" H 5350 5400 50  0001 C CNN
F 3 "~" H 5350 5400 50  0001 C CNN
	1    5350 5400
	0    1    1    0   
$EndComp
$Comp
L power:GND #PWR0106
U 1 1 5E42C56F
P 6300 4800
F 0 "#PWR0106" H 6300 4550 50  0001 C CNN
F 1 "GND" H 6305 4627 50  0000 C CNN
F 2 "" H 6300 4800 50  0001 C CNN
F 3 "" H 6300 4800 50  0001 C CNN
	1    6300 4800
	1    0    0    -1  
$EndComp
$Comp
L power:VDD #PWR0105
U 1 1 5E426AE6
P 6450 5050
F 0 "#PWR0105" H 6450 4900 50  0001 C CNN
F 1 "VDD" H 6467 5223 50  0000 C CNN
F 2 "" H 6450 5050 50  0001 C CNN
F 3 "" H 6450 5050 50  0001 C CNN
	1    6450 5050
	1    0    0    -1  
$EndComp
Wire Wire Line
	3200 5150 3100 5150
Connection ~ 3200 5150
Wire Wire Line
	3200 5250 3200 5150
Wire Wire Line
	2700 5150 2700 5100
Wire Wire Line
	2800 5150 2700 5150
Wire Wire Line
	3350 5150 3200 5150
$Comp
L Device:R R6
U 1 1 5E40FC9F
P 2950 5150
F 0 "R6" V 2743 5150 50  0000 C CNN
F 1 "10k" V 2834 5150 50  0000 C CNN
F 2 "Resistor_SMD:R_0603_1608Metric" V 2880 5150 50  0001 C CNN
F 3 "~" H 2950 5150 50  0001 C CNN
	1    2950 5150
	0    1    1    0   
$EndComp
$Comp
L power:VDD #PWR0104
U 1 1 5E40E140
P 2700 5100
F 0 "#PWR0104" H 2700 4950 50  0001 C CNN
F 1 "VDD" H 2717 5273 50  0000 C CNN
F 2 "" H 2700 5100 50  0001 C CNN
F 3 "" H 2700 5100 50  0001 C CNN
	1    2700 5100
	1    0    0    -1  
$EndComp
$Comp
L power:VDD #PWR0103
U 1 1 5E402FD6
P 4050 3250
F 0 "#PWR0103" H 4050 3100 50  0001 C CNN
F 1 "VDD" H 4067 3423 50  0000 C CNN
F 2 "" H 4050 3250 50  0001 C CNN
F 3 "" H 4050 3250 50  0001 C CNN
	1    4050 3250
	1    0    0    -1  
$EndComp
Connection ~ 4000 6450
Wire Wire Line
	4050 6450 4000 6450
Wire Wire Line
	4050 6250 4050 6450
Wire Wire Line
	4000 6450 4000 6500
Wire Wire Line
	3950 6450 4000 6450
Wire Wire Line
	3950 6250 3950 6450
$Comp
L power:GND #PWR0102
U 1 1 5E3FA631
P 4000 6500
F 0 "#PWR0102" H 4000 6250 50  0001 C CNN
F 1 "GND" H 4005 6327 50  0000 C CNN
F 2 "" H 4000 6500 50  0001 C CNN
F 3 "" H 4000 6500 50  0001 C CNN
	1    4000 6500
	1    0    0    -1  
$EndComp
$Comp
L MCU_Microchip_PIC18:PIC18F24K20_ISS U2
U 1 1 5E3ED780
P 4150 5250
F 0 "U2" H 4150 6431 50  0000 C CNN
F 1 "PIC18F24K42_ISO" H 4150 6340 50  0000 C CNN
F 2 "Package_SO:SOIC-28W_7.5x17.9mm_P1.27mm" H 3650 4750 50  0001 C CNN
F 3 "https://ww1.microchip.com/downloads/en/DeviceDoc/PIC18LF24-25K42-Data-Sheet-DS40001869E.pdf" H 4150 5200 50  0001 C CNN
	1    4150 5250
	1    0    0    -1  
$EndComp
$Comp
L Transistor_FET:AO3401A Q1
U 1 1 5EF6A987
P 1150 1400
F 0 "Q1" V 1492 1400 50  0000 C CNN
F 1 "PMV48XPA2" V 1401 1400 50  0000 C CNN
F 2 "Package_TO_SOT_SMD:SOT-23" H 1350 1325 50  0001 L CIN
F 3 "http://www.aosmd.com/pdfs/datasheet/AO3401A.pdf" H 1150 1400 50  0001 L CNN
	1    1150 1400
	0    -1   -1   0   
$EndComp
Wire Wire Line
	750  1750 1150 1750
Wire Wire Line
	1350 1300 1500 1300
Wire Wire Line
	950  1300 750  1300
Wire Wire Line
	1150 1600 1150 1750
Connection ~ 1150 1750
Wire Wire Line
	1150 1750 1500 1750
NoConn ~ 7550 2250
NoConn ~ 7550 2350
NoConn ~ 7550 2450
NoConn ~ 7550 2550
$Comp
L custom_library:MSP2202-v1.1 U3
U 1 1 5E408126
P 8350 2650
F 0 "U3" H 8350 3431 50  0000 C CNN
F 1 "MSP2202-v1.1" H 8350 3340 50  0000 C CNN
F 2 "custom_footprints:MSP2202-v1.1-offboard" H 8350 1950 50  0001 C CNN
F 3 "http://www.lcdwiki.com/2.2inch_SPI_Module_ILI9341_SKU:MSP2202" H 7700 3150 50  0001 C CNN
	1    8350 2650
	1    0    0    -1  
$EndComp
$Comp
L Device:R R5
U 1 1 5EDB1511
P 10100 2450
F 0 "R5" V 10000 2400 50  0000 L CNN
F 1 "10k" V 10200 2400 50  0000 L CNN
F 2 "Resistor_SMD:R_0603_1608Metric" V 10030 2450 50  0001 C CNN
F 3 "~" H 10100 2450 50  0001 C CNN
	1    10100 2450
	0    -1   -1   0   
$EndComp
NoConn ~ 9150 2650
Connection ~ 8350 1600
Wire Wire Line
	8350 1600 8350 2050
Wire Wire Line
	8350 1450 8350 1600
Wire Wire Line
	8750 1600 8350 1600
$Comp
L power:GND #PWR0112
U 1 1 5E59CB40
P 8750 1900
F 0 "#PWR0112" H 8750 1650 50  0001 C CNN
F 1 "GND" H 8755 1727 50  0000 C CNN
F 2 "" H 8750 1900 50  0001 C CNN
F 3 "" H 8750 1900 50  0001 C CNN
	1    8750 1900
	1    0    0    -1  
$EndComp
$Comp
L power:VDD #PWR0113
U 1 1 5E59D7C8
P 8350 1450
F 0 "#PWR0113" H 8350 1300 50  0001 C CNN
F 1 "VDD" H 8367 1623 50  0000 C CNN
F 2 "" H 8350 1450 50  0001 C CNN
F 3 "" H 8350 1450 50  0001 C CNN
	1    8350 1450
	1    0    0    -1  
$EndComp
Text GLabel 9150 2950 2    50   Input ~ 0
LCD_RS
Text GLabel 9150 2750 2    50   Input ~ 0
LCD_SCK
Text GLabel 9150 2550 2    50   Input ~ 0
LCD_MOSI
Text GLabel 9150 2350 2    50   Input ~ 0
LCD_DC
$Comp
L power:GND #PWR0114
U 1 1 5ED97618
P 8350 3250
F 0 "#PWR0114" H 8350 3000 50  0001 C CNN
F 1 "GND" H 8355 3077 50  0000 C CNN
F 2 "" H 8350 3250 50  0001 C CNN
F 3 "" H 8350 3250 50  0001 C CNN
	1    8350 3250
	1    0    0    -1  
$EndComp
$Comp
L Device:C C9
U 1 1 5E442E46
P 5700 5250
F 0 "C9" V 5952 5250 50  0000 C CNN
F 1 "12pF" V 5861 5250 50  0000 C CNN
F 2 "Capacitor_SMD:C_0603_1608Metric" H 5738 5100 50  0001 C CNN
F 3 "~" H 5700 5250 50  0001 C CNN
	1    5700 5250
	0    -1   -1   0   
$EndComp
$Comp
L Device:C C10
U 1 1 5E442814
P 5700 5550
F 0 "C10" V 5550 5550 50  0000 C CNN
F 1 "12pF" V 5450 5550 50  0000 C CNN
F 2 "Capacitor_SMD:C_0603_1608Metric" H 5738 5400 50  0001 C CNN
F 3 "~" H 5700 5550 50  0001 C CNN
	1    5700 5550
	0    -1   -1   0   
$EndComp
Wire Wire Line
	4350 2400 4350 2450
Connection ~ 4350 2400
Connection ~ 4350 1700
Wire Wire Line
	4350 2350 4350 2400
$Comp
L Device:Ferrite_Bead FB1
U 1 1 5E41D5E2
P 4650 1700
F 0 "FB1" V 4376 1700 50  0000 C CNN
F 1 "MH2029-601Y" V 4467 1700 50  0000 C CNN
F 2 "Inductor_SMD:L_0805_2012Metric" V 4580 1700 50  0001 C CNN
F 3 "~" H 4650 1700 50  0001 C CNN
	1    4650 1700
	0    1    1    0   
$EndComp
Wire Wire Line
	4350 2800 4350 2750
$Comp
L Device:R R2
U 1 1 5E41615D
P 4350 2200
F 0 "R2" H 4420 2246 50  0000 L CNN
F 1 "15k" H 4420 2155 50  0000 L CNN
F 2 "Resistor_SMD:R_0603_1608Metric" V 4280 2200 50  0001 C CNN
F 3 "~" H 4350 2200 50  0001 C CNN
	1    4350 2200
	1    0    0    -1  
$EndComp
Wire Wire Line
	4350 2050 4350 1700
Wire Wire Line
	4350 1700 4500 1700
$Comp
L Device:CP C5
U 1 1 5E44ADD6
P 4950 1900
F 0 "C5" H 5068 1946 50  0000 L CNN
F 1 "220uF" H 5068 1855 50  0000 L CNN
F 2 "Capacitor_THT:CP_Radial_D6.3mm_P2.50mm" H 4988 1750 50  0001 C CNN
F 3 "~" H 4950 1900 50  0001 C CNN
	1    4950 1900
	1    0    0    -1  
$EndComp
Wire Wire Line
	4950 1750 4950 1700
Wire Wire Line
	4950 1700 4800 1700
$Comp
L power:GND #PWR07
U 1 1 5E44FC59
P 4950 2150
F 0 "#PWR07" H 4950 1900 50  0001 C CNN
F 1 "GND" H 4955 1977 50  0000 C CNN
F 2 "" H 4950 2150 50  0001 C CNN
F 3 "" H 4950 2150 50  0001 C CNN
	1    4950 2150
	1    0    0    -1  
$EndComp
Wire Wire Line
	4950 2150 4950 2050
$Comp
L power:VDD #PWR0120
U 1 1 5E6D826F
P 5400 1700
F 0 "#PWR0120" H 5400 1550 50  0001 C CNN
F 1 "VDD" H 5417 1873 50  0000 C CNN
F 2 "" H 5400 1700 50  0001 C CNN
F 3 "" H 5400 1700 50  0001 C CNN
	1    5400 1700
	1    0    0    -1  
$EndComp
Connection ~ 4950 1700
$Comp
L power:GND #PWR06
U 1 1 5E416A15
P 4350 2800
F 0 "#PWR06" H 4350 2550 50  0001 C CNN
F 1 "GND" H 4355 2627 50  0000 C CNN
F 2 "" H 4350 2800 50  0001 C CNN
F 3 "" H 4350 2800 50  0001 C CNN
	1    4350 2800
	1    0    0    -1  
$EndComp
$Comp
L power:GND #PWR011
U 1 1 5EFF03B8
P 3950 2100
F 0 "#PWR011" H 3950 1850 50  0001 C CNN
F 1 "GND" H 3955 1927 50  0000 C CNN
F 2 "" H 3950 2100 50  0001 C CNN
F 3 "" H 3950 2100 50  0001 C CNN
	1    3950 2100
	1    0    0    -1  
$EndComp
Wire Wire Line
	3950 2050 3950 2100
$Comp
L Device:CP C4
U 1 1 5EFF03C3
P 3950 1900
F 0 "C4" H 4068 1946 50  0000 L CNN
F 1 "220uF" H 4068 1855 50  0000 L CNN
F 2 "Capacitor_THT:CP_Radial_D6.3mm_P2.50mm" H 3988 1750 50  0001 C CNN
F 3 "~" H 3950 1900 50  0001 C CNN
	1    3950 1900
	1    0    0    -1  
$EndComp
Wire Wire Line
	3500 1700 3950 1700
Connection ~ 3500 1700
Wire Wire Line
	3950 1750 3950 1700
Connection ~ 3950 1700
Wire Wire Line
	3950 1700 4350 1700
Wire Wire Line
	2850 2400 4350 2400
$Comp
L Device:C C11
U 1 1 5EF35628
P 1600 4600
F 0 "C11" H 1715 4646 50  0000 L CNN
F 1 "1uF" H 1715 4555 50  0000 L CNN
F 2 "Capacitor_SMD:C_0603_1608Metric" H 1638 4450 50  0001 C CNN
F 3 "~" H 1600 4600 50  0001 C CNN
	1    1600 4600
	1    0    0    -1  
$EndComp
$Comp
L Device:R R1
U 1 1 5E416691
P 4350 2600
F 0 "R1" H 4420 2646 50  0000 L CNN
F 1 "9.1k" H 4420 2555 50  0000 L CNN
F 2 "Resistor_SMD:R_0603_1608Metric" V 4280 2600 50  0001 C CNN
F 3 "~" H 4350 2600 50  0001 C CNN
	1    4350 2600
	1    0    0    -1  
$EndComp
$Comp
L Device:R R4
U 1 1 5F29192F
P 9650 2850
F 0 "R4" V 9857 2850 50  0000 C CNN
F 1 "51R" V 9766 2850 50  0000 C CNN
F 2 "Resistor_SMD:R_0603_1608Metric" V 9580 2850 50  0001 C CNN
F 3 "~" H 9650 2850 50  0001 C CNN
	1    9650 2850
	0    -1   -1   0   
$EndComp
Wire Wire Line
	9950 2450 9150 2450
Wire Wire Line
	10250 2450 10300 2450
Wire Wire Line
	10300 2450 10300 2550
$Comp
L power:GND #PWR08
U 1 1 5EDB1A42
P 10300 2550
F 0 "#PWR08" H 10300 2300 50  0001 C CNN
F 1 "GND" H 10305 2377 50  0000 C CNN
F 2 "" H 10300 2550 50  0001 C CNN
F 3 "" H 10300 2550 50  0001 C CNN
	1    10300 2550
	1    0    0    -1  
$EndComp
$Comp
L power:VDD #PWR09
U 1 1 5F295BB2
P 9900 2800
F 0 "#PWR09" H 9900 2650 50  0001 C CNN
F 1 "VDD" H 9917 2973 50  0000 C CNN
F 2 "" H 9900 2800 50  0001 C CNN
F 3 "" H 9900 2800 50  0001 C CNN
	1    9900 2800
	1    0    0    -1  
$EndComp
Wire Wire Line
	9900 2800 9900 2850
Wire Wire Line
	9900 2850 9800 2850
NoConn ~ 4950 5650
$Comp
L Device:C C7
U 1 1 5FA30118
P 4350 3500
F 0 "C7" V 4098 3500 50  0000 C CNN
F 1 "22uF" V 4189 3500 50  0000 C CNN
F 2 "Capacitor_SMD:C_0603_1608Metric" H 4388 3350 50  0001 C CNN
F 3 "~" H 4350 3500 50  0001 C CNN
	1    4350 3500
	0    1    1    0   
$EndComp
Wire Wire Line
	4050 3250 4050 3500
Wire Wire Line
	4200 3500 4050 3500
Connection ~ 4050 3500
Wire Wire Line
	4500 3500 4650 3500
Wire Wire Line
	3100 4450 3350 4450
Wire Wire Line
	3000 4550 3350 4550
Wire Wire Line
	2900 4650 3350 4650
Wire Wire Line
	2900 4500 2900 4650
Wire Wire Line
	3000 4400 3000 4550
Wire Wire Line
	3100 4300 3100 4450
Wire Wire Line
	3000 4400 2900 4400
Wire Wire Line
	3100 4300 2900 4300
Wire Wire Line
	3200 4200 2900 4200
$Comp
L Connector_Generic:Conn_01x04 J1
U 1 1 5E3F981A
P 2700 4300
F 0 "J1" H 2618 4617 50  0000 C CNN
F 1 "Conn_01x04" H 2618 4526 50  0000 C CNN
F 2 "Connector_PinHeader_2.54mm:PinHeader_1x04_P2.54mm_Horizontal" H 2700 4300 50  0001 C CNN
F 3 "~" H 2700 4300 50  0001 C CNN
	1    2700 4300
	-1   0    0    -1  
$EndComp
$Comp
L power:GND #PWR0109
U 1 1 5E577846
P 3200 4200
F 0 "#PWR0109" H 3200 3950 50  0001 C CNN
F 1 "GND" H 3205 4027 50  0000 C CNN
F 2 "" H 3200 4200 50  0001 C CNN
F 3 "" H 3200 4200 50  0001 C CNN
	1    3200 4200
	1    0    0    -1  
$EndComp
Wire Wire Line
	2100 4400 2100 4450
Wire Wire Line
	2250 4450 2100 4450
Connection ~ 2100 4450
Wire Wire Line
	2100 4450 2100 4550
Wire Wire Line
	2250 4150 2100 4150
Connection ~ 2100 4150
Wire Wire Line
	2100 4150 2100 4200
$Comp
L Device:R R7
U 1 1 5FAE9BD2
P 2800 4750
F 0 "R7" V 2593 4750 50  0000 C CNN
F 1 "1.2k" V 2684 4750 50  0000 C CNN
F 2 "Resistor_SMD:R_0603_1608Metric" V 2730 4750 50  0001 C CNN
F 3 "~" H 2800 4750 50  0001 C CNN
	1    2800 4750
	0    1    1    0   
$EndComp
Wire Wire Line
	2950 4750 3350 4750
Wire Wire Line
	1600 4450 1600 4050
Wire Wire Line
	1600 4750 1600 5050
Wire Wire Line
	2400 4750 2650 4750
$Comp
L Device:C C8
U 1 1 5E4D1DE3
P 4350 3900
F 0 "C8" V 4098 3900 50  0000 C CNN
F 1 "1uF" V 4189 3900 50  0000 C CNN
F 2 "Capacitor_SMD:C_0603_1608Metric" H 4388 3750 50  0001 C CNN
F 3 "~" H 4350 3900 50  0001 C CNN
	1    4350 3900
	0    1    1    0   
$EndComp
$Comp
L Device:C C6
U 1 1 5E59DF8D
P 8750 1750
F 0 "C6" H 8865 1796 50  0000 L CNN
F 1 "1uF" H 8865 1705 50  0000 L CNN
F 2 "Capacitor_SMD:C_0603_1608Metric" H 8788 1600 50  0001 C CNN
F 3 "~" H 8750 1750 50  0001 C CNN
	1    8750 1750
	1    0    0    -1  
$EndComp
Wire Wire Line
	9150 2850 9500 2850
Wire Wire Line
	4950 1700 5400 1700
Wire Wire Line
	4050 3500 4050 3900
Connection ~ 4050 3900
Wire Wire Line
	4650 3500 4650 3900
Connection ~ 4650 3900
Wire Wire Line
	2100 4950 2100 5050
Wire Wire Line
	2100 4000 2100 4050
Wire Wire Line
	1600 4050 2100 4050
Connection ~ 2100 4050
Wire Wire Line
	2100 4050 2100 4150
Wire Wire Line
	1600 5050 2100 5050
Connection ~ 2100 5050
Wire Wire Line
	2100 5050 2100 5100
Wire Wire Line
	5850 5250 5950 5250
Wire Wire Line
	5950 5250 5950 5400
Wire Wire Line
	5950 5550 5850 5550
Wire Wire Line
	6100 5400 5950 5400
Connection ~ 5950 5400
Wire Wire Line
	5950 5400 5950 5550
Wire Wire Line
	5300 4700 6600 4700
Wire Wire Line
	6300 4800 6600 4800
Wire Wire Line
	6450 5050 6550 5050
Wire Wire Line
	6550 5050 6550 4900
Wire Wire Line
	6550 4900 6600 4900
Wire Wire Line
	6550 5150 6600 5150
Wire Wire Line
	6600 5150 6600 5000
$EndSCHEMATC
